"Name","Transparent Color(Hex)","X","Y","Width","Height"
"Frame1","FFFFFFFF","8","8","24","24"
"Copy_Frame1","FFFFFFFF","48","8","24","24"
"Copy_Copy_Copy_Frame1","FFFFFFFF","8","48","24","24"
"Copy_Copy_Frame1","FFFFFFFF","48","48","24","24"
"Copy_Copy_Copy_Frame1","FFFFFFFF","8","88","24","24"
"Copy_Copy_Copy_Copy_Frame1","FFFFFFFF","48","88","24","24"
"Copy_Copy_Copy_Copy_Copy_Frame1","FFFFFFFF","8","128","24","24"
"Copy_Copy_Copy_Frame1","FFFFFFFF","48","128","24","24"
"Copy_Copy_Copy_Copy_Frame1","FFFFFFFF","8","168","24","24"
"Copy_Copy_Copy_Copy_Copy_Frame1","FFFFFFFF","48","168","24","24"
"Copy_Copy_Copy_Copy_Copy_Copy_Frame1","FFFFFFFF","8","208","24","24"
"Copy_Copy_Copy_Copy_Copy_Copy_Copy_Frame1","FFFFFFFF","48","208","24","24"
"Copy_Copy_Copy_Copy_Copy_Copy_Copy_Copy_Frame1","FFFFFFFF","8","248","24","24"
"Copy_Copy_Copy_Copy_Copy_Copy_Copy_Copy_Frame1","FFFFFFFF","48","248","24","24"
"Copy_Copy_Copy_Copy_Copy_Copy_Copy_Copy_Frame1","FFFFFFFF","8","288","24","24"
"Copy_Copy_Copy_Copy_Copy_Copy_Copy_Copy_Frame1","FFFFFFFF","48","288","24","24"
